Day One: Import
…
In the tidyverse, we will use a modern version of the data frame called tibble (class: tbl_df)

library(tidyverse)

mtcars_tbl <- as_tibble(mtcars)
mtcars_tbl

# `tibble`s are `data.frame`s!
class(mtcars_tbl) 

[1] "tbl_df"     "tbl"        "data.frame"

# A tibble: 32 × 11
     mpg   cyl  disp    hp  drat    wt  qsec    vs    am  gear
   <dbl> <dbl> <dbl> <dbl> <dbl> <dbl> <dbl> <dbl> <dbl> <dbl>
 1  21       6  160    110  3.9   2.62  16.5     0     1     4
 2  21       6  160    110  3.9   2.88  17.0     0     1     4
 3  22.8     4  108     93  3.85  2.32  18.6     1     1     4
 4  21.4     6  258    110  3.08  3.22  19.4     1     0     3
 5  18.7     8  360    175  3.15  3.44  17.0     0     0     3
 6  18.1     6  225    105  2.76  3.46  20.2     1     0     3
 7  14.3     8  360    245  3.21  3.57  15.8     0     0     3
 8  24.4     4  147.    62  3.69  3.19  20       1     0     4
 9  22.8     4  141.    95  3.92  3.15  22.9     1     0     4
10  19.2     6  168.   123  3.92  3.44  18.3     1     0     4
# ℹ 22 more rows
# ℹ 1 more variable: carb <dbl>
…
library(tidyverse)

mtcars_tbl <- as_tibble(
  mtcars,
  rownames = "model"
)
mtcars_tbl

# `tibble`s are `data.frame`s!
class(mtcars_tbl) 

[1] "tbl_df"     "tbl"        "data.frame"

# A tibble: 32 × 12
   model      mpg   cyl  disp    hp  drat    wt  qsec    vs    am
   <chr>    <dbl> <dbl> <dbl> <dbl> <dbl> <dbl> <dbl> <dbl> <dbl>
 1 Mazda R…  21       6  160    110  3.9   2.62  16.5     0     1
 2 Mazda R…  21       6  160    110  3.9   2.88  17.0     0     1
 3 Datsun …  22.8     4  108     93  3.85  2.32  18.6     1     1
 4 Hornet …  21.4     6  258    110  3.08  3.22  19.4     1     0
 5 Hornet …  18.7     8  360    175  3.15  3.44  17.0     0     0
 6 Valiant   18.1     6  225    105  2.76  3.46  20.2     1     0
 7 Duster …  14.3     8  360    245  3.21  3.57  15.8     0     0
 8 Merc 24…  24.4     4  147.    62  3.69  3.19  20       1     0
 9 Merc 230  22.8     4  141.    95  3.92  3.15  22.9     1     0
10 Merc 280  19.2     6  168.   123  3.92  3.44  18.3     1     0
# ℹ 22 more rows
# ℹ 2 more variables: gear <dbl>, carb <dbl>
…
read CSV with ?read_csv

From disk

From web

From text

library(here)
library(tidyverse)

data_path <- here("data-raw", "Copenhagen_clean.csv")
read_csv(data_path)

# A tibble: 384 × 46
      id sex      age group class diarrhoea bloody vomiting abdo 
   <dbl> <chr>  <dbl> <chr> <dbl> <lgl>     <lgl>  <lgl>    <lgl>
 1     1 male      18 stud…     2 TRUE      FALSE  FALSE    TRUE 
 2     3 female    18 stud…     3 NA        NA     NA       NA   
 3     5 female    17 stud…     1 NA        NA     NA       TRUE 
 4     6 male      17 stud…     2 NA        NA     NA       NA   
 5     7 female    18 stud…     3 TRUE      FALSE  FALSE    TRUE 
 6     8 male      18 stud…     2 TRUE      FALSE  FALSE    TRUE 
 7     9 male      61 teac…    NA NA        NA     NA       NA   
 8    10 female    15 stud…     1 FALSE     FALSE  FALSE    FALSE
 9    11 female    43 teac…    NA TRUE      NA     NA       NA   
10    12 male      16 stud…     1 NA        NA     NA       NA   
# ℹ 374 more rows
# ℹ 37 more variables: nausea <lgl>, fever <lgl>,
#   headache <lgl>, jointpain <lgl>, starthour <dbl>,
#   meal <lgl>, tuna <lgl>, tunaD <dbl>, shrimps <lgl>,
#   shrimpsD <dbl>, green <lgl>, greenD <dbl>, veal <lgl>,
#   vealD <dbl>, pasta <lgl>, pastaD <dbl>, rocket <lgl>,
#   rocketD <dbl>, sauce <lgl>, sauceD <dbl>, bread <lgl>, …
…
Non plain-text data [optional]

Excel

SAS

STATA

SPSS

library(readxl)
here("data-raw", "Copenhagen_clean.xlsx") |> 
  read_excel()

# A tibble: 384 × 46
      id sex      age group class diarrhoea bloody vomiting abdo 
   <dbl> <chr>  <dbl> <chr> <chr> <lgl>     <lgl>  <lgl>    <lgl>
 1     1 male      18 stud… 2     TRUE      FALSE  FALSE    TRUE 
 2     3 female    18 stud… 3     NA        NA     NA       NA   
 3     5 female    17 stud… 1     NA        NA     NA       TRUE 
 4     6 male      17 stud… 2     NA        NA     NA       NA   
 5     7 female    18 stud… 3     TRUE      FALSE  FALSE    TRUE 
 6     8 male      18 stud… 2     TRUE      FALSE  FALSE    TRUE 
 7     9 male      61 teac… <NA>  NA        NA     NA       NA   
 8    10 female    15 stud… 1     FALSE     FALSE  FALSE    FALSE
 9    11 female    43 teac… <NA>  TRUE      NA     NA       NA   
10    12 male      16 stud… 1     NA        NA     NA       NA   
# ℹ 374 more rows
# ℹ 37 more variables: nausea <lgl>, fever <lgl>,
#   headache <lgl>, jointpain <lgl>, starthour <dbl>,
#   meal <lgl>, tuna <lgl>, tunaD <dbl>, shrimps <lgl>,
#   shrimpsD <dbl>, green <lgl>, greenD <dbl>, veal <lgl>,
#   vealD <dbl>, pasta <lgl>, pastaD <dbl>, rocket <lgl>,
#   rocketD <dbl>, sauce <lgl>, sauceD <dbl>, bread <lgl>, …

library(haven)

read_sas(
  "http://www.principlesofeconometrics.com/sas/airline.sas7bdat"
)

# A tibble: 32 × 6
    YEAR     Y     W     R     L     K
   <dbl> <dbl> <dbl> <dbl> <dbl> <dbl>
 1  1948  1.21 0.243 0.145  1.41 0.612
 2  1949  1.35 0.260 0.218  1.38 0.559
 3  1950  1.57 0.278 0.316  1.39 0.573
 4  1951  1.95 0.297 0.394  1.55 0.564
 5  1952  2.27 0.310 0.356  1.80 0.574
 6  1953  2.73 0.322 0.359  1.93 0.711
 7  1954  3.03 0.335 0.403  1.96 0.776
 8  1955  3.56 0.350 0.396  2.12 0.827
 9  1956  3.98 0.361 0.382  2.43 0.800
10  1957  4.42 0.379 0.305  2.71 0.921
# ℹ 22 more rows
…
library(here)
library(rio)

# {rio} default import is a simple data.frame.
# But, class of imported object can be asked
# to be a tibble!
here("data-raw", "Copenhagen_clean.xlsx") |> 
  import(setclass = "tibble")

# A tibble: 384 × 46
      id sex      age group class diarrhoea bloody vomiting abdo 
   <dbl> <chr>  <dbl> <chr> <chr> <lgl>     <lgl>  <lgl>    <lgl>
 1     1 male      18 stud… 2     TRUE      FALSE  FALSE    TRUE 
 2     3 female    18 stud… 3     NA        NA     NA       NA   
 3     5 female    17 stud… 1     NA        NA     NA       TRUE 
 4     6 male      17 stud… 2     NA        NA     NA       NA   
 5     7 female    18 stud… 3     TRUE      FALSE  FALSE    TRUE 
 6     8 male      18 stud… 2     TRUE      FALSE  FALSE    TRUE 
 7     9 male      61 teac… <NA>  NA        NA     NA       NA   
 8    10 female    15 stud… 1     FALSE     FALSE  FALSE    FALSE
 9    11 female    43 teac… <NA>  TRUE      NA     NA       NA   
10    12 male      16 stud… 1     NA        NA     NA       NA   
# ℹ 374 more rows
# ℹ 37 more variables: nausea <lgl>, fever <lgl>,
#   headache <lgl>, jointpain <lgl>, starthour <dbl>,
#   meal <lgl>, tuna <lgl>, tunaD <dbl>, shrimps <lgl>,
#   shrimpsD <dbl>, green <lgl>, greenD <dbl>, veal <lgl>,
#   vealD <dbl>, pasta <lgl>, pastaD <dbl>, rocket <lgl>,
#   rocketD <dbl>, sauce <lgl>, sauceD <dbl>, bread <lgl>, …

library(here)
library(rio)

# {rio} default import is a simple data.frame
# You can also set the {rio} import class globally
options(rio.import.class = "tibble")

import(
  "http://www.principlesofeconometrics.com/sas/airline.sas7bdat"
)

# A tibble: 32 × 6
    YEAR     Y     W     R     L     K
   <dbl> <dbl> <dbl> <dbl> <dbl> <dbl>
 1  1948  1.21 0.243 0.145  1.41 0.612
 2  1949  1.35 0.260 0.218  1.38 0.559
 3  1950  1.57 0.278 0.316  1.39 0.573
 4  1951  1.95 0.297 0.394  1.55 0.564
 5  1952  2.27 0.310 0.356  1.80 0.574
 6  1953  2.73 0.322 0.359  1.93 0.711
 7  1954  3.03 0.335 0.403  1.96 0.776
 8  1955  3.56 0.350 0.396  2.12 0.827
 9  1956  3.98 0.361 0.382  2.43 0.800
10  1957  4.42 0.379 0.305  2.71 0.921
# ℹ 22 more rows
…
STATA

SPSS

Copenhagen_clean <- here("data-raw", "Copenhagen_clean.csv") |> 
  import()

Copenhagen_clean |> 
  # export() returns the output path
  # so, we can pipe it back to import
  export(here("output", "Copenhagen_clean.csv")) |> 
  import()

# A tibble: 384 × 46
      id sex      age group class diarrhoea bloody vomiting abdo 
   <int> <chr>  <int> <chr> <int> <lgl>     <lgl>  <lgl>    <lgl>
 1     1 male      18 stud…     2 TRUE      FALSE  FALSE    TRUE 
 2     3 female    18 stud…     3 NA        NA     NA       NA   
 3     5 female    17 stud…     1 NA        NA     NA       TRUE 
 4     6 male      17 stud…     2 NA        NA     NA       NA   
 5     7 female    18 stud…     3 TRUE      FALSE  FALSE    TRUE 
 6     8 male      18 stud…     2 TRUE      FALSE  FALSE    TRUE 
 7     9 male      61 teac…    NA NA        NA     NA       NA   
 8    10 female    15 stud…     1 FALSE     FALSE  FALSE    FALSE
 9    11 female    43 teac…    NA TRUE      NA     NA       NA   
10    12 male      16 stud…     1 NA        NA     NA       NA   
# ℹ 374 more rows
# ℹ 37 more variables: nausea <lgl>, fever <lgl>,
#   headache <lgl>, jointpain <lgl>, starthour <int>,
#   meal <lgl>, tuna <lgl>, tunaD <int>, shrimps <lgl>,
#   shrimpsD <int>, green <lgl>, greenD <int>, veal <lgl>,
#   vealD <int>, pasta <lgl>, pastaD <int>, rocket <lgl>,
#   rocketD <int>, sauce <lgl>, sauceD <int>, bread <lgl>, …

Copenhagen_clean |> 
  export(here("output", "Copenhagen_clean.xlsx")) |> 
  import()

# A tibble: 384 × 46
      id sex      age group class diarrhoea bloody vomiting abdo 
   <dbl> <chr>  <dbl> <chr> <dbl> <lgl>     <lgl>  <lgl>    <lgl>
 1     1 male      18 stud…     2 TRUE      FALSE  FALSE    TRUE 
 2     3 female    18 stud…     3 NA        NA     NA       NA   
 3     5 female    17 stud…     1 NA        NA     NA       TRUE 
 4     6 male      17 stud…     2 NA        NA     NA       NA   
 5     7 female    18 stud…     3 TRUE      FALSE  FALSE    TRUE 
 6     8 male      18 stud…     2 TRUE      FALSE  FALSE    TRUE 
 7     9 male      61 teac…    NA NA        NA     NA       NA   
 8    10 female    15 stud…     1 FALSE     FALSE  FALSE    FALSE
 9    11 female    43 teac…    NA TRUE      NA     NA       NA   
10    12 male      16 stud…     1 NA        NA     NA       NA   
# ℹ 374 more rows
# ℹ 37 more variables: nausea <lgl>, fever <lgl>,
#   headache <lgl>, jointpain <lgl>, starthour <dbl>,
#   meal <lgl>, tuna <lgl>, tunaD <dbl>, shrimps <lgl>,
#   shrimpsD <dbl>, green <lgl>, greenD <dbl>, veal <lgl>,
#   vealD <dbl>, pasta <lgl>, pastaD <dbl>, rocket <lgl>,
#   rocketD <dbl>, sauce <lgl>, sauceD <dbl>, bread <lgl>, …

Copenhagen_clean |> 
  export(here("output", "Copenhagen_clean.sas7bdat")) |> 
  import()

# A tibble: 384 × 46
      id sex      age group class diarrhoea bloody vomiting  abdo
   <dbl> <chr>  <dbl> <chr> <dbl>     <dbl>  <dbl>    <dbl> <dbl>
 1     1 male      18 stud…     2         1      0        0     1
 2     3 female    18 stud…     3        NA     NA       NA    NA
 3     5 female    17 stud…     1        NA     NA       NA     1
 4     6 male      17 stud…     2        NA     NA       NA    NA
 5     7 female    18 stud…     3         1      0        0     1
 6     8 male      18 stud…     2         1      0        0     1
 7     9 male      61 teac…    NA        NA     NA       NA    NA
 8    10 female    15 stud…     1         0      0        0     0
 9    11 female    43 teac…    NA         1     NA       NA    NA
10    12 male      16 stud…     1        NA     NA       NA    NA
# ℹ 374 more rows
# ℹ 37 more variables: nausea <dbl>, fever <dbl>,
#   headache <dbl>, jointpain <dbl>, starthour <dbl>,
#   meal <dbl>, tuna <dbl>, tunaD <dbl>, shrimps <dbl>,
#   shrimpsD <dbl>, green <dbl>, greenD <dbl>, veal <dbl>,
#   vealD <dbl>, pasta <dbl>, pastaD <dbl>, rocket <dbl>,
#   rocketD <dbl>, sauce <dbl>, sauceD <dbl>, bread <dbl>, …

Copenhagen_clean |> 
  export(here("output", "Copenhagen_clean.dta")) |> 
  import()

# A tibble: 384 × 46
      id sex      age group class diarrhoea bloody vomiting  abdo
   <dbl> <chr>  <dbl> <chr> <dbl>     <dbl>  <dbl>    <dbl> <dbl>
 1     1 male      18 stud…     2         1      0        0     1
 2     3 female    18 stud…     3        NA     NA       NA    NA
 3     5 female    17 stud…     1        NA     NA       NA     1
 4     6 male      17 stud…     2        NA     NA       NA    NA
 5     7 female    18 stud…     3         1      0        0     1
 6     8 male      18 stud…     2         1      0        0     1
 7     9 male      61 teac…    NA        NA     NA       NA    NA
 8    10 female    15 stud…     1         0      0        0     0
 9    11 female    43 teac…    NA         1     NA       NA    NA
10    12 male      16 stud…     1        NA     NA       NA    NA
# ℹ 374 more rows
# ℹ 37 more variables: nausea <dbl>, fever <dbl>,
#   headache <dbl>, jointpain <dbl>, starthour <dbl>,
#   meal <dbl>, tuna <dbl>, tunaD <dbl>, shrimps <dbl>,
#   shrimpsD <dbl>, green <dbl>, greenD <dbl>, veal <dbl>,
#   vealD <dbl>, pasta <dbl>, pastaD <dbl>, rocket <dbl>,
#   rocketD <dbl>, sauce <dbl>, sauceD <dbl>, bread <dbl>, …

Copenhagen_clean |> 
  export(here("output", "Copenhagen_clean.sav")) |> 
  import()

# A tibble: 384 × 46
      id sex      age group class diarrhoea bloody vomiting  abdo
   <dbl> <chr>  <dbl> <chr> <dbl>     <dbl>  <dbl>    <dbl> <dbl>
 1     1 male      18 stud…     2         1      0        0     1
 2     3 female    18 stud…     3        NA     NA       NA    NA
 3     5 female    17 stud…     1        NA     NA       NA     1
 4     6 male      17 stud…     2        NA     NA       NA    NA
 5     7 female    18 stud…     3         1      0        0     1
 6     8 male      18 stud…     2         1      0        0     1
 7     9 male      61 teac…    NA        NA     NA       NA    NA
 8    10 female    15 stud…     1         0      0        0     0
 9    11 female    43 teac…    NA         1     NA       NA    NA
10    12 male      16 stud…     1        NA     NA       NA    NA
# ℹ 374 more rows
# ℹ 37 more variables: nausea <dbl>, fever <dbl>,
#   headache <dbl>, jointpain <dbl>, starthour <dbl>,
#   meal <dbl>, tuna <dbl>, tunaD <dbl>, shrimps <dbl>,
#   shrimpsD <dbl>, green <dbl>, greenD <dbl>, veal <dbl>,
#   vealD <dbl>, pasta <dbl>, pastaD <dbl>, rocket <dbl>,
#   rocketD <dbl>, sauce <dbl>, sauceD <dbl>, bread <dbl>, …
…
